…
 --- vervet monkeys are more sexually dimorphic
----wolly monkeys have a larger average female body mass

----------SECOND PART OF CHALLENGE 8 ---------

s <- d %>%
+     mutate(Binomial = paste(Genus, Species, sep = " ")) %>%
+     select(Binomial, Body_mass_female_mean, Body_mass_male_mean, Mass_Dimorphism) %>%
+     group_by(Binomial) %>%
+     summarise(avgF = mean(Body_mass_female_mean, na.rm = TRUE), avgM = mean(Body_mass_male_mean,
+                                                                             na.rm = TRUE), avgBMD = mean(Mass_Dimorphism, na.rm = TRUE))
> s
# A tibble: 213 × 4
   Binomial                     avgF  avgM  avgBMD
   <chr>                       <dbl> <dbl>   <dbl>
 1 Allenopithecus nigroviridis  3180  6130   1.93 
 2 Allocebus trichotis            84    92   1.10 
 3 Alouatta belzebul            5520  7270   1.32 
 4 Alouatta caraya              4240  6525   1.54 
 5 Alouatta guariba             4550  5800   1.27 
 6 Alouatta palliata            5350  7150   1.34 
 7 Alouatta pigra               6430 11400   1.77 
 8 Alouatta seniculus           5210  6690   1.28 
 9 Aotus azarai                 1230  1180   0.959
10 Aotus brumbacki               NaN   NaN NaN    
# ℹ 203 more rows
# ℹ Use `print(n = ...)` to see more rows
…
